00300000000000000000000000000000000000000
00300000000000000000000000000000000000000
00300000000000000000000000000000000000000
00300000000000000000000000000000000000000
00300000000000000000000000000000000000000
00300000000000000000000000000000000000000
00300000000000000000000000000000000000000
00300000000000000000000000000000000000000
00300000000000000000000000000000000000000
00300000000000000000000000000000000000000
00300000000000000000000000000000000000000
00300000000000000000000000000000000000000
00300000000000000000000000000000000000000
00300000000000000000000000000000000000000
00300000000000000000000000000000000000000
00300000000000000000000000000000000000000
00300000000000000000000000000000000000000
00300000000000000000000000000000000000000
00300000000000000000000000000000000000020
00300000000000000000000000000000000000200
00300000000000000000000000000000000002000
00300000000000000000000000000000000020000
00300000000000000000000000000000000200020
00300000000000000000000000000000002000200
00300000000000000000000000000000020002000
00300000000000000000000000000000200020000
00300000000000000000000000000002000200000
00300000000000000000000000000020002000000
00300000000000000000000000000200020000000
00300000000000000000000000002000200000000
00300000000000000000000000020002000000000
00300000000000000000000000200020000000020
00300000000000000000000002000200000000200
00300000000000000000000020002000000002000
00300000000000000000000200020000000020000
00300000000000000000002000200000000200000
00300000000000000000020002000000002000020
00300000000000000000200020000000020000200
00300000000000000002000200000000200002020
00300000000000000020002000000002000020200
00300000000000000200020000000020000202000
00300000000000002000200000000200002020000
00300000000000020002000000002000020200000
00300000000000200020000000020000202000000
00300000000002000200000000200002020000000
00300000000020002000000002000020200000000
00300000000200020000000020000202000000000
00300000002000200000000200002020000000000
00300000020002000000002000020200000000000
00300000200020000000020000202000000000000
00300002000200000000200002020000000000000
00300020002000000002000020200000000000001
00000200020000000020000202000000000000000
00002000200000000200002020000000000000000
00020002000000002000020200000000000000000
00200020000000020000202000000000000000000
02000200000000200002020000000000000000000
20302000000002000020200000000000000000000
00320000000020000202000000000000000000001
00200000000200002020000000000000000000000
02000000002000020200000000000000000000000
20000000020000202000000000000000000000000
00000000200002020000000000000000000000000
00000002000020200000000000000000000000000
00300020000202000000000000000000000000000
00300200002020000000000000000000000000001
00002000020200000000000000000000000000000
00020000202000000000000000000000000000000
00200002020000000000000000000000000000000
02000020200000000000000000000000000000000
20000202000000000000000000000000000000000
00302020000000000000000000000000000000001
00020200000000000000000000000000000000000
00202000000000000000000000000000000000000
02020000000000000000000000000000000000020
20200000000000000000000000000000000000200
02000000000000000000000000000000000002000
20300000000000000000000000000000000020000
00300000000000000000000000000000000200000
00300000000000000000000000000000002000000
00300000000000000000000000000000020000000
00300000000000000000000000000000200000000
00300000000000000000000000000002000000000
00300000000000000000000000000020000000000
00300000000000000000000000000200000000000
00300000000000000000000000002000000000000
00300000000000000000000000020000000000000
00300000000000000000000000200000000000000
00300000000000000000000002000000000000000
00300000000000000000000020000000000000000
00300000000000000000000200000000000000000
00300000000000000000002000000000000000000
00300000000000000000020000000000000000000
00300000000000000000200000000000000000000
00300000000000000002000000000000000000000
00300000000000000020000000000000000000000
00300000000000000200000000000000000000000
00300000000000002000000000000000000000000
00300000000000020000000000000000000000000
00300000000000200000000000000000000000020
00300000000002000000000000000000000000200
00300000000020000000000000000000000002020
00300000000200000000000000000000000020200
00300000002000000000000000000000000202000
00300000020000000000000000000000002020000
00300000200000000000000000000000020200000
00300002000000000000000000000000202000001
00000020000000000000000000000002020000000
00000200000000000000000000000020200000000
00002000000000000000000000000202000000000
00020000000000000000000000002020000000000
00200000000000000000000000020200000000000
02300000000000000000000000202000000000000
20300000000000000000000002020000000000000
00300000000000000000000020200000000000000
00300000000000000000000202000000000000000
00300000000000000000002020000000000000000
00300000000000000000020200000000000000000
00300000000000000000202000000000000000000
00300000000000000002020000000000000000000
00300000000000000020200000000000000000000
00300000000000000202000000000000000000000
00300000000000002020000000000000000000000
00300000000000020200000000000000000000000
00300000000000202000000000000000000000000
00300000000002020000000000000000000000000
00300000000020200000000000000000000000000
00300000000202000000000000000000000000000
00300000002020000000000000000000000000000
00300000020200000000000000000000000000020
00300000202000000000000000000000000000200
00300002020000000000000000000000000002001
00000020200000000000000000000000000020000
00000202000000000000000000000000000200020
00002020000000000000000000000000002000200
00020200000000000000000000000000020002000
00202000000000000000000000000000200020000
02320000000000000000000000000002000200000
00300000000000000000000000000000000000000
00300000000000000000000000000000000000000
00300000000000000000000000000000000000000
00300000000000000000000000000000000000000
00300000000000000000000000000000000000000
00300000000000000000000000000000000000000
00300000000000000000000000000000000000000
00300000000000000000000000000000000000020
00300000000000000000000000000000000000200
00300000000000000000000000000000000002000
00300000000000000000000000000000000020000
00300000000000000000000000000000000200000
00300000000000000000000000000000002000020
00300000000000000000000000000000020000200
00300000000000000000000000000000200002000
00300000000000000000000000000002000020000
00300000000000000000000000000020000200000
00300000000000000000000000000200002000000
00300000000000000000000000002000020000000
00300000000000000000000000020000200000000
00300000000000000000000000200002000000000
00300000000000000000000002000020000000000
00300000000000000000000020000200000000020
00300000000000000000000200002000000000200
00300000000000000000002000020000000002000
00300000000000000000020000200000000020000
00300000000000000000200002000000000200000
00300000000000000002000020000000002000020
00300000000000000020000200000000020000200
00300000000000000200002000000000200002000
00300000000000002000020000000002000020000
00300000000000020000200000000020000200000
00300000000000200002000000000200002000000
00300000000002000020000000002000020000000
00300000000020000200000000020000200000000
00300000000200002000000000200002000000020
00300000002000020000000002000020000000200
00300000020000200000000020000200000002000
00300000200002000000000200002000000020000
00300002000020000000002000020000000200001
00000020000200000000020000200000002000000
00000200002000000000200002000000020000000
00002000020000000002000020000000200000000
00020000200000000020000200000002000000000
00200002000000000200002000000020000000000
02300020000000002000020000000200000000000
20300200000000020000200000002000000000000
00302000000000200002000000020000000000000
00320000000002000020000000200000000000001
00200000000020000200000002000000000000000
02000000000200002000000020000000000000000
20000000002000020000000200000000000000000
00000000020000200000002000000000000000000
00000000200002000000020000000000000000000
00300002000020000000200000000000000000020
00300020000200000002000000000000000000201
00000200002000000020000000000000000002000
00002000020000000200000000000000000020020
00020000200000002000000000000000000200200
00200002000000020000000000000000002002000
02000020000000200000000000000000020020000
20300200000002000000000000000000200200001
00002000000020000000000000000002002000000
00020000000200000000000000000020020000000
00200000002000000000000000000200200000000
02000000020000000000000000002002000000000
20000000200000000000000000020020000000000
00300002000000000000000000200200000000000
00300020000000000000000002002000000000000
00300200000000000000000020020000000000001
00002000000000000000000200200000000000000
00020000000000000000002002000000000000020
00200000000000000000020020000000000000200
02000000000000000000200200000000000002000
20000000000000000002002000000000000020000
00300000000000000020020000000000000200000
00300000000000000200200000000000002000000
00300000000000002002000000000000020000000
00300000000000020020000000000000200000000
00300000000000200200000000000002000000000
00300000000002002000000000000020000000000
00300000000020020000000000000200000000000
00300000000200200000000000002000000000000
00300000002002000000000000020000000000000
00300000020020000000000000200000000000000
00300000200200000000000002000000000000000
00300002002000000000000020000000000000020
00300020020000000000000200000000000000201
00000200200000000000002000000000000002000
00002002000000000000020000000000000020000
00020020000000000000200000000000000200000
00200200000000000002000000000000002000000
02002000000000000020000000000000020000000
20320000000000000200000000000000200000001
00200000000000002000000000000002000000020
02000000000000020000000000000020000000200
20000000000000200000000000000200000002000
00000000000002000000000000002000000020000
00000000000020000000000000020000000200000
00300000000200000000000000200000002000020
00300000002000000000000002000000020000200
00300000020000000000000020000000200002000
00300000200000000000000200000002000020020
00300002000000000000002000000020000200201
00000020000000000000020000000200002002000
00000200000000000000200000002000020020000
00002000000000000002000000020000200200000
00020000000000000020000000200002002000000
00200000000000000200000002000020020000000
02300000000000002000000020000200200000000
20300000000000020000000200002002000000000
00300000000000200000002000020020000000000
00300000000002000000020000200200000000000
00300000000020000000200002002000000000000
00300000000200000002000020020000000000000
00300000002000000020000200200000000000000
00300000020000000200002002000000000000000
00300000200000002000020020000000000000000
00300002000000020000200200000000000000000
00300020000000200002002000000000000000000
00300200000002000020020000000000000000001
00002000000020000200200000000000000000000
00020000000200002002000000000000000000000
00200000002000020020000000000000000000000
02000000020000200200000000000000000000000
20000000200002002000000000000000000000000
00300002000020020000000000000000000000000
00300020000200200000000000000000000000001
00000200002002000000000000000000000000020
00002000020020000000000000000000000000200
00020000200200000000000000000000000002000
00200002002000000000000000000000000020000
02000020020000000000000000000000000200000
20300200200000000000000000000000002000000
00302002000000000000000000000000020000001
00020020000000000000000000000000200000000
00200200000000000000000000000002000000000
02002000000000000000000000000020000000000
20020000000000000000000000000200000000000
00200000000000000000000000002000000000000
02300000000000000000000000020000000000000
20300000000000000000000000200000000000000
00300000000000000000000002000000000000000
00300000000000000000000020000000000000000
00300000000000000000000200000000000000000
00300000000000000000002000000000000000000
00300000000000000000020000000000000000000
00300000000000000000200000000000000000000
00300000000000000002000000000000000000000
00300000000000000020000000000000000000000
00300000000000000200000000000000000000000
00300000000000002000000000000000000000000
00300000000000020000000000000000000000000
00300000000000200000000000000000000000000
00300000000002000000000000000000000000000
00300000000020000000000000000000000000000
00300000000200000000000000000000000000000
00300000002000000000000000000000000000000
00300000020000000000000000000000000000000
00300000200000000000000000000000000000000
00300002000000000000000000000000000000000
00300020000000000000000000000000000000001
00000200000000000000000000000000000000000
00002000000000000000000000000000000000000
00020000000000000000000000000000000000020
00200000000000000000000000000000000000200
02000000000000000000000000000000000002000
20300000000000000000000000000000000020020
00300000000000000000000000000000000200200
00300000000000000000000000000000002002000
00300000000000000000000000000000020020000
00300000000000000000000000000000200200000
00300000000000000000000000000002002000000
00300000000000000000000000000020020000000
00300000000000000000000000000200200000020
00300000000000000000000000002002000000200
00300000000000000000000000020020000002000
00300000000000000000000000200200000020000
00300000000000000000000002002000000200000
00300000000000000000000020020000002000000
00300000000000000000000200200000020000000
00300000000000000000002002000000200000000
00300000000000000000020020000002000000000
00300000000000000000200200000020000000020
00300000000000000002002000000200000000200
00300000000000000020020000002000000002000
00300000000000000200200000020000000020000
00300000000000002002000000200000000200000
00300000000000020020000002000000002000000
00300000000000200200000020000000020000000
00300000000002002000000200000000200000000
00300000000020020000002000000002000000020
00300000000200200000020000000020000000200
00300000002002000000200000000200000002000
00300000020020000002000000002000000020000
00300000200200000020000000020000000200000
00300002002000000200000000200000002000001
00000020020000002000000002000000020000000
00000200200000020000000020000000200000020
00002002000000200000000200000002000000200
00020020000002000000002000000020000002000
00200200000020000000020000000200000020001
02302000000200000000200000002000000200000
20320000002000000002000000020000002000000
00300000000000000000000000000000000000000
00300000000000000000000000000000000000000
00300000000000000000000000000000000000000
00300000000000000000000000000000000000000
00300000000000000000000000000000000000000
00300000000000000000000000000000000000000
00300000000000000000000000000000000000000
00300000000000000000000000000000000000020
00300000000000000000000000000000000000200
00300000000000000000000000000000000002000
00300000000000000000000000000000000020000
00300000000000000000000000000000000200000
00300000000000000000000000000000002000000
00300000000000000000000000000000020000000
00300000000000000000000000000000200000000
00300000000000000000000000000002000000000
00300000000000000000000000000020000000000
00300000000000000000000000000200000000000
00300000000000000000000000002000000000000
00300000000000000000000000020000000000000
00300000000000000000000000200000000000000
00300000000000000000000002000000000000000
00300000000000000000000020000000000000000
00300000000000000000000200000000000000020
00300000000000000000002000000000000000200
00300000000000000000020000000000000002000
00300000000000000000200000000000000020000
00300000000000000002000000000000000200000
00300000000000000020000000000000002000000
00300000000000000200000000000000020000020
00300000000000002000000000000000200000200
00300000000000020000000000000002000002000
00300000000000200000000000000020000020000
00300000000002000000000000000200000200000
00300000000020000000000000002000002000000
00300000000200000000000000020000020000000
00300000002000000000000000200000200000000
00300000020000000000000002000002000000000
00300000200000000000000020000020000000000
00300002000000000000000200000200000000000
00300020000000000000002000002000000000000
00300200000000000000020000020000000000001
00002000000000000000200000200000000000000
00020000000000000002000002000000000000000
00200000000000000020000020000000000000000
02000000000000000200000200000000000000000
20000000000000002000002000000000000000000
00300000000000020000020000000000000000000
00300000000000200000200000000000000000000
00300000000002000002000000000000000000000
00300000000020000020000000000000000000000
00300000000200000200000000000000000000000
00300000002000002000000000000000000000000
00300000020000020000000000000000000000000
00300000200000200000000000000000000000000
00300002000002000000000000000000000000000
00300020000020000000000000000000000000001
00000200000200000000000000000000000000020
00002000002000000000000000000000000000200
00020000020000000000000000000000000002000
00200000200000000000000000000000000020020
02000002000000000000000000000000000200200
20300020000000000000000000000000002002001
00000200000000000000000000000000020020000
00002000000000000000000000000000200200000
00020000000000000000000000000002002000000
00200000000000000000000000000020020000000
02000000000000000000000000000200200000000
20300000000000000000000000002002000000020
00300000000000000000000000020020000000200
00300000000000000000000000200200000002000
00300000000000000000000002002000000020000
00300000000000000000000020020000000200000
00300000000000000000000200200000002000000
00300000000000000000002002000000020000000
00300000000000000000020020000000200000000
00300000000000000000200200000002000000000
00300000000000000002002000000020000000000
00300000000000000020020000000200000000000
00300000000000000200200000002000000000000
00300000000000002002000000020000000000000
00300000000000020020000000200000000000000
00300000000000200200000002000000000000000
00300000000002002000000020000000000000020
00300000000020020000000200000000000000220
00300000000200200000002000000000000002200
00300000002002000000020000000000000022000
00300000020020000000200000000000000220000
00300000200200000002000000000000002200000
00300002002000000020000000000000022000021
00000020020000000200000000000000220000200
00000200200000002000000000000002200002000
00002002000000020000000000000022000020000
00020020000000200000000000000220000200000
00200200000002000000000000002200002000000
02302000000020000000000000022000020000000
20320000000200000000000000220000200000001
00200000002000000000000002200002000000000
02000000020000000000000022000020000000000
20000000200000000000000220000200000000000
00000002000000000000002200002000000000000
00000020000000000000022000020000000000000
00300200000000000000220000200000000000000
00302000000000000002200002000000000000001
00020000000000000022000020000000000000000
00200000000000000220000200000000000000000
02000000000000002200002000000000000000000
20000000000000022000020000000000000000000
00000000000000220000200000000000000000000
00300000000002200002000000000000000000000
00300000000022000020000000000000000000000
00300000000220000200000000000000000000000
00300000002200002000000000000000000000000
00300000022000020000000000000000000000000
00300000220000200000000000000000000000000
00300002200002000000000000000000000000000
00300022000020000000000000000000000000000
00300220000200000000000000000000000000001
00002200002000000000000000000000000000000
00022000020000000000000000000000000000020
00220000200000000000000000000000000000200
02200002000000000000000000000000000002000
22000020000000000000000000000000000020000
20300200000000000000000000000000000200001
00002000000000000000000000000000002000000
00020000000000000000000000000000020000000
00200000000000000000000000000000200000020
02000000000000000000000000000002000000200
20000000000000000000000000000020000002000
00300000000000000000000000000200000020000
00300000000000000000000000002000000200000
00300000000000000000000000020000002000000
00300000000000000000000000200000020000000
00300000000000000000000002000000200000000
00300000000000000000000020000002000000000
00300000000000000000000200000020000000000
00300000000000000000002000000200000000000
00300000000000000000020000002000000000000
00300000000000000000200000020000000000000
00300000000000000002000000200000000000000
00300000000000000020000002000000000000000
00300000000000000200000020000000000000000
00300000000000002000000200000000000000000
00300000000000020000002000000000000000000
00300000000000200000020000000000000000020
00300000000002000000200000000000000000200
00300000000020000002000000000000000002000
00300000000200000020000000000000000020000
00300000002000000200000000000000000200000
00300000020000002000000000000000002000000
00300000200000020000000000000000020000020
00300002000000200000000000000000200000220
00300020000002000000000000000002000002221
00000200000020000000000000000020000022200
00002000000200000000000000000200000222000
00020000002000000000000000002000002220000
00200000020000000000000000020000022200000
02000000200000000000000000200000222000000
20300002000000000000000002000002220000000
00300020000000000000000020000022200000000
00300200000000000000000200000222000000001
00002000000000000000002000002220000000000
00020000000000000000020000022200000000000
00200000000000000000200000222000000000000
02000000000000000002000002220000000000000
20000000000000000020000022200000000000000
00300000000000000200000222000000000000000
00300000000000002000002220000000000000000
00300000000000020000022200000000000000000
00300000000000200000222000000000000000000
00300000000002000002220000000000000000000
00300000000020000022200000000000000000000
00300000000200000222000000000000000000000
00300000002000002220000000000000000000000
00300000020000022200000000000000000000020
00300000200000222000000000000000000000200
00300002000002220000000000000000000002000
00300020000022200000000000000000000020001
00000200000222000000000000000000000200000
00002000002220000000000000000000002000000
00020000022200000000000000000000020000000
00200000222000000000000000000000200000000
02000002220000000000000000000002000000000
20300022200000000000000000000020000000000
00300222000000000000000000000200000000001
00002220000000000000000000002000000000000
00022200000000000000000000020000000000020
00222000000000000000000000200000000000200
02220000000000000000000002000000000002000
22200000000000000000000020000000000020000
22300000000000000000000200000000000200000
20300000000000000000002000000000002000000
00300000000000000000020000000000020000000
00300000000000000000200000000000200000000
00300000000000000002000000000002000000000
00300000000000000020000000000020000000000
00300000000000000200000000000200000000000
00300000000000002000000000002000000000000
00300000000000020000000000020000000000000
00300000000000200000000000200000000000000
00300000000002000000000002000000000000000
00300000000020000000000020000000000000020
00300000000200000000000200000000000000200
00300000002000000000002000000000000002000
00300000020000000000020000000000000020000
00300000200000000000200000000000000200000
00300002000000000002000000000000002000001
00000020000000000020000000000000020000000
00000200000000000200000000000000200000000
00002000000000002000000000000002000000000
00020000000000020000000000000020000000000
00200000000000200000000000000200000000000
02300000000002000000000000002000000000020
20300000000020000000000000020000000000200
00300000000200000000000000200000000002000
00300000002000000000000002000000000020000
00300000020000000000000020000000000200000
00300000200000000000000200000000002000000
00300002000000000000002000000000020000000
00300020000000000000020000000000200000001
00000200000000000000200000000002000000000
00002000000000000002000000000020000000000
00020000000000000020000000000200000000000
00200000000000000200000000002000000000000
02000000000000002000000000020000000000000
20300000000000020000000000200000000000000
00300000000000200000000002000000000000000
00300000000002000000000020000000000000000
00300000000020000000000200000000000000000
00300000000200000000002000000000000000000
00300000002000000000020000000000000000000
00300000020000000000200000000000000000000
00300000200000000002000000000000000000000
00300002000000000020000000000000000000000
00300020000000000200000000000000000000001
00000200000000002000000000000000000000000
00002000000000020000000000000000000000000
00020000000000200000000000000000000000000
00200000000002000000000000000000000000000
02000000000020000000000000000000000000000
20300000000200000000000000000000000000000
00300000002000000000000000000000000000000
00300000020000000000000000000000000000000
00300000200000000000000000000000000000020
00300002000000000000000000000000000000200
00300020000000000000000000000000000002000
00300200000000000000000000000000000020000
00302000000000000000000000000000000200001
00020000000000000000000000000000002000000
00200000000000000000000000000000020000000
02000000000000000000000000000000200000000
20000000000000000000000000000002000000000
00000000000000000000000000000020000000000
00300000000000000000000000000200000000000
00300000000000000000000000002000000000000
00300000000000000000000000020000000000000
00300000000000000000000000200000000000000
00300000000000000000000002000000000000000
00300000000000000000000020000000000000000
00300000000000000000000200000000000000000
00300000000000000000002000000000000000000
00300000000000000000020000000000000000000
00300000000000000000200000000000000000000
00300000000000000002000000000000000000000
00300000000000000020000000000000000000000
00300000000000000200000000000000000000000
00300000000000002000000000000000000000020
00300000000000020000000000000000000000200
00300000000000200000000000000000000002000
00300000000002000000000000000000000020000
00300000000020000000000000000000000200000
00300000000200000000000000000000002000000
00300000002000000000000000000000020000000
00300000020000000000000000000000200000000
00300000200000000000000000000002000000000
00300002000000000000000000000020000000000
00300020000000000000000000000200000000000
00300200000000000000000000002000000000000
00302000000000000000000000020000000000000
00320000000000000000000000200000000000001
00200000000000000000000002000000000000000
02000000000000000000000020000000000000000
20000000000000000000000200000000000000000
00000000000000000000002000000000000000000
00000000000000000000020000000000000000000
00300000000000000000200000000000000000000
00300000000000000002000000000000000000000
00300000000000000020000000000000000000000
00300000000000000200000000000000000000000
00300000000000002000000000000000000000000
00300000000000020000000000000000000000020
00300000000000200000000000000000000000200
00300000000002000000000000000000000002000
00300000000020000000000000000000000020000
00300000000200000000000000000000000200000
00300000002000000000000000000000002000020
00300000020000000000000000000000020000220
00300000200000000000000000000000200002200
00300002000000000000000000000002000022000
00300020000000000000000000000020000220000
00300200000000000000000000000200002200001
00002000000000000000000000002000022000000
00020000000000000000000000020000220000000
00200000000000000000000000200002200000000
02000000000000000000000002000022000000000
20000000000000000000000020000220000000000
00300000000000000000000200002200000000000
00300000000000000000002000022000000000000
00300000000000000000020000220000000000000
00300000000000000000200002200000000000000
00300000000000000002000022000000000000000
00300000000000000020000220000000000000000
00300000000000000200002200000000000000000
00300000000000002000022000000000000000000
00300000000000020000220000000000000000000
00300000000000200002200000000000000000000
00300000000002000022000000000000000000000
00300000000020000220000000000000000000000
00300000000200002200000000000000000000000
00300000002000022000000000000000000000000
00300000020000220000000000000000000000000
00300000200002200000000000000000000000000
00300002000022000000000000000000000000000
00300020000220000000000000000000000000001
00000200002200000000000000000000000000000
00002000022000000000000000000000000000000
00020000220000000000000000000000000000000
00200002200000000000000000000000000000000
02000022000000000000000000000000000000000
20300220000000000000000000000000000000000
00302200000000000000000000000000000000001
00022000000000000000000000000000000000000
00220000000000000000000000000000000000000
02200000000000000000000000000000000000000
22000000000000000000000000000000000000020
20000000000000000000000000000000000000200
00300000000000000000000000000000000002000
00300000000000000000000000000000000020000
00300000000000000000000000000000000200000
00300000000000000000000000000000002000000
00300000000000000000000000000000020000000
00300000000000000000000000000000200000000
00300000000000000000000000000002000000000
00300000000000000000000000000020000000000
00300000000000000000000000000200000000000
00300000000000000000000000002000000000000
00300000000000000000000000020000000000000
00300000000000000000000000200000000000020
00300000000000000000000002000000000000220
00300000000000000000000020000000000002200
00300000000000000000000200000000000022000
00300000000000000000002000000000000220000
00300000000000000000020000000000002200000
00300000000000000000200000000000022000000
00300000000000000002000000000000220000000
00300000000000000020000000000002200000000
00300000000000000200000000000022000000000
00300000000000002000000000000220000000000
00300000000000020000000000002200000000000
00300000000000200000000000022000000000000
00300000000002000000000000220000000000000
00300000000020000000000002200000000000000
00300000000200000000000022000000000000000
00300000002000000000000220000000000000020
00300000020000000000002200000000000000200
00300000200000000000022000000000000002000
00300002000000000000220000000000000020000
00300020000000000002200000000000000200020
00300200000000000022000000000000002000200
00302000000000000220000000000000020002001
00020000000000002200000000000000200020000
00200000000000022000000000000002000200000
02000000000000220000000000000020002000000
20000000000002200000000000000200020000000
00000000000022000000000000002000200000000
00300000000220000000000000020002000000000
00300000002200000000000000200020000000000
00300000022000000000000002000200000000000
00300000220000000000000020002000000000000
00300002200000000000000200020000000000000
00300022000000000000002000200000000000000
00300220000000000000020002000000000000000
00302200000000000000200020000000000000021
00022000000000000002000200000000000000200
00220000000000000020002000000000000002000
02200000000000000200020000000000000020000
22000000000000002000200000000000000200000
20000000000000020002000000000000002000000
00300000000000200020000000000000020000000
00300000000002000200000000000000200000000
00300000000020002000000000000002000000000
00300000000200020000000000000020000000000
00300000002000200000000000000200000000020
00300000020002000000000000002000000000200
00300000200020000000000000020000000002000
00300002000200000000000000200000000020000
00300020002000000000000002000000000200000
00300200020000000000000020000000002000001
00002000200000000000000200000000020000020
00020002000000000000002000000000200000200
00200020000000000000020000000002000002000
02000200000000000000200000000020000020000
20002000000000000002000000000200000200000
00320000000000000020000000002000002000001
00200000000000000200000000020000020000000
02000000000000002000000000200000200000000
20000000000000020000000002000002000000000
00000000000000200000000020000020000000000
00000000000002000000000200000200000000000
00300000000020000000002000002000000000000
00300000000200000000020000020000000000000
00300000002000000000200000200000000000000
00300000020000000002000002000000000000000
00300000200000000020000020000000000000000
00300002000000000200000200000000000000020
00300020000000002000002000000000000000200
00300200000000020000020000000000000002001
00002000000000200000200000000000000020000
00020000000002000002000000000000000200000
00200000000020000020000000000000002000000
02000000000200000200000000000000020000000
20000000002000002000000000000000200000000
00300000020000020000000000000002000000000
00300000200000200000000000000020000000000
00300002000002000000000000000200000000000
00300020000020000000000000002000000000001
00000200000200000000000000020000000000000
00002000002000000000000000200000000000000
00020000020000000000000002000000000000020
00200000200000000000000020000000000000200
02000002000000000000000200000000000002000
20300020000000000000002000000000000020000
00300200000000000000020000000000000200001
00002000000000000000200000000000002000000
00020000000000000002000000000000020000000
00200000000000000020000000000000200000000
02000000000000000200000000000002000000000
20000000000000002000000000000020000000000
00300000000000020000000000000200000000000
00300000000000200000000000002000000000000
00300000000002000000000000020000000000020
00300000000020000000000000200000000000200
00300000000200000000000002000000000002000
00300000002000000000000020000000000020000
00300000020000000000000200000000000200000
00300000200000000000002000000000002000000
00300002000000000000020000000000020000020
00300020000000000000200000000000200000200
00300200000000000002000000000002000002000
00302000000000000020000000000020000020001
00020000000000000200000000000200000200000
00200000000000002000000000002000002000000
02000000000000020000000000020000020000020
20000000000000200000000000200000200000220
00000000000002000000000002000002000002200
00300000000020000000000020000020000022000
00300000000200000000000200000200000220000
00300000002000000000002000002000002200000
00300000020000000000020000020000022000020
00300000200000000000200000200000220000200
00300002000000000002000002000002200002000
00300020000000000020000020000022000020000
00300200000000000200000200000220000200000
00302000000000002000002000002200002000001
00020000000000020000020000022000020000000
00200000000000200000200000220000200000000
02000000000002000002000002200002000000000
20000000000020000020000022000020000000020
00000000000200000200000220000200000000200
00300000002000002000002200002000000002000
00300000020000020000022000020000000020020
00300000200000200000220000200000000200220
00300002000002000002200002000000002002200
00300020000020000022000020000000020022001
00000200000200000220000200000000200220000
00002000002000002200002000000002002200000
00020000020000022000020000000020022000000
00200000200000220000200000000200220000000
02000002000002200002000000002002200000000
20300020000022000020000000020022000000001
00000200000220000200000000200220000000000
00002000002200002000000002002200000000000
00020000022000020000000020022000000000000
00200000220000200000000200220000000000000
02000002200002000000002002200000000000020
20300022000020000000020022000000000000200
00300220000200000000200220000000000002000
00302200002000000002002200000000000020000
00322000020000000020022000000000000200001
00220000200000000200220000000000002000000
02200002000000002002200000000000020000000
22000020000000020022000000000000200000000
20000200000000200220000000000002000000000
00002000000002002200000000000020000000001
00320000000020022000000000000200000000000
